…
webpage <- read_html("http://en.wikipedia.org/wiki/List_of_Latin_American_countries_by_population")

Step 2: Extract the Table

So far, so good. Next, we extract the table using html_table(). Because the last row of the table doesn’t span all of the columns, we need to use the argument fill = TRUE to set the remaining columns to NA. Helpfully, the function will prompt us to do this if we don’t recognize we need to. One wrinkle is that html_table() returns a list of all of the tables on the webpage. In this case, there’s only one table, but we still get back a list of length one. Since what we really want is a dataframe, not a list, we’ll use first() to grab the first element of the list. If we had a longer list and wanted some middle element, we’d use nth(). And we’ll make the dataframe into a tibble for the extra goodness that that format gives us.

latam_pop <- webpage %>% 
    html_table(fill=TRUE) %>%   # generates a list of all tables
    first() %>%                 # gets the first element of the list
    as_tibble()                 # makes the dataframe a tibble
    
latam_pop

## # A tibble: 27 x 10
##    Rank  `Country(or dep… `July 1, 2015pr… `% ofpop.` `Averagerelativ…
##    <chr> <chr>            <chr>                 <dbl>            <dbl>
##  1 1     Brazil           204,519,000           33.1              0.86
##  2 2     Mexico           127,500,000           19.6              1.08
##  3 3     Colombia         48,218,000             7.81             1.16
##  4 4     Argentina        43,132,000             6.99             1.09
##  5 5     Peru             31,153,000             5.05             1.1 
##  6 6     Venezuela        30,620,000             4.96             1.37
##  7 7     Chile            18,006,000             2.92             1.05
##  8 8     Ecuador          16,279,000             2.64             1.57
##  9 9     Guatemala        16,176,000             2.62             2.93
## 10 10    Cuba             11,252,000             1.82             0.25
## # … with 17 more rows, and 5 more variables:
## #   `Averageabsoluteannualgrowth[3]` <chr>,
## #   `Estimateddoublingtime(Years)[4]` <chr>,
## #   `Officialfigure(whereavailable)` <chr>, `Date oflast figure` <chr>,
## #   Source <chr>
…
